%YAML 1.1
%TAG !u! tag:unity3d.com,2011:
--- !u!114 &11400000
MonoBehaviour:
  m_ObjectHideFlags: 0
  m_CorrespondingSourceObject: {fileID: 0}
  m_PrefabInstance: {fileID: 0}
  m_PrefabAsset: {fileID: 0}
  m_GameObject: {fileID: 0}
  m_Enabled: 1
  m_EditorHideFlags: 0
  m_Script: {fileID: 11500000, guid: 900523afe913ec0409301b34133e5820, type: 3}
  m_Name: BARK_JUMP
  m_EditorClassIdentifier: 
  state: 13
  Loop: 0
  TransitionState: 13
  Action:
    m_PersistentCalls:
      m_Calls:
      - m_Target: {fileID: 7807204976201698918, guid: 01f4a3f0d987f47029d93369bbb9037d, type: 3}
        m_TargetAssemblyTypeName: Pinni, Assembly-CSharp
        m_MethodName: EndBark
        m_Mode: 1
        m_Arguments:
          m_ObjectArgument: {fileID: 0}
          m_ObjectArgumentAssemblyTypeName: UnityEngine.Object, UnityEngine
          m_IntArgument: 0
          m_FloatArgument: 0
          m_StringArgument: 
          m_BoolArgument: 0
        m_CallState: 2
