%YAML 1.1
%TAG !u! tag:unity3d.com,2011:
--- !u!74 &7400000
AnimationClip:
  m_ObjectHideFlags: 0
  m_CorrespondingSourceObject: {fileID: 0}
  m_PrefabInstance: {fileID: 0}
  m_PrefabAsset: {fileID: 0}
  m_Name: STOP
  serializedVersion: 6
  m_Legacy: 0
  m_Compressed: 0
  m_UseHighQualityCurve: 1
  m_RotationCurves: []
  m_CompressedRotationCurves: []
  m_EulerCurves: []
  m_PositionCurves: []
  m_ScaleCurves: []
  m_FloatCurves: []
  m_PPtrCurves:
  - curve:
    - time: 0
      value: {fileID: 3045936549288474303, guid: fbe039a20c0cb5e4f90e9abc843ad095, type: 3}
    - time: 0.083333336
      value: {fileID: 9058346208481349447, guid: fbe039a20c0cb5e4f90e9abc843ad095, type: 3}
    - time: 0.16666667
      value: {fileID: 4609469230766205271, guid: fbe039a20c0cb5e4f90e9abc843ad095, type: 3}
    - time: 0.25
      value: {fileID: -799510739738565520, guid: fbe039a20c0cb5e4f90e9abc843ad095, type: 3}
    - time: 0.33333334
      value: {fileID: -8539511086492486945, guid: fbe039a20c0cb5e4f90e9abc843ad095, type: 3}
    - time: 0.41666666
      value: {fileID: -4042595501943114124, guid: fbe039a20c0cb5e4f90e9abc843ad095, type: 3}
    attribute: m_Sprite
    path: 
    classID: 212
    script: {fileID: 0}
  m_SampleRate: 12
  m_WrapMode: 0
  m_Bounds:
    m_Center: {x: 0, y: 0, z: 0}
    m_Extent: {x: 0, y: 0, z: 0}
  m_ClipBindingConstant:
    genericBindings:
    - serializedVersion: 2
      path: 0
      attribute: 0
      script: {fileID: 0}
      typeID: 212
      customType: 23
      isPPtrCurve: 1
    pptrCurveMapping:
    - {fileID: 3045936549288474303, guid: fbe039a20c0cb5e4f90e9abc843ad095, type: 3}
    - {fileID: 9058346208481349447, guid: fbe039a20c0cb5e4f90e9abc843ad095, type: 3}
    - {fileID: 4609469230766205271, guid: fbe039a20c0cb5e4f90e9abc843ad095, type: 3}
    - {fileID: -799510739738565520, guid: fbe039a20c0cb5e4f90e9abc843ad095, type: 3}
    - {fileID: -8539511086492486945, guid: fbe039a20c0cb5e4f90e9abc843ad095, type: 3}
    - {fileID: -4042595501943114124, guid: fbe039a20c0cb5e4f90e9abc843ad095, type: 3}
  m_AnimationClipSettings:
    serializedVersion: 2
    m_AdditiveReferencePoseClip: {fileID: 0}
    m_AdditiveReferencePoseTime: 0
    m_StartTime: 0
    m_StopTime: 0.5
    m_OrientationOffsetY: 0
    m_Level: 0
    m_CycleOffset: 0
    m_HasAdditiveReferencePose: 0
    m_LoopTime: 0
    m_LoopBlend: 0
    m_LoopBlendOrientation: 0
    m_LoopBlendPositionY: 0
    m_LoopBlendPositionXZ: 0
    m_KeepOriginalOrientation: 0
    m_KeepOriginalPositionY: 1
    m_KeepOriginalPositionXZ: 0
    m_HeightFromFeet: 0
    m_Mirror: 0
  m_EditorCurves: []
  m_EulerEditorCurves: []
  m_HasGenericRootTransform: 0
  m_HasMotionFloatCurves: 0
  m_Events:
  - time: 0.5
    functionName: AnimationCallback
    data: 
    objectReferenceParameter: {fileID: 0}
    floatParameter: 0
    intParameter: 0
    messageOptions: 0
